%YAML 1.1
%TAG !u! tag:unity3d.com,2011:
--- !u!114 &11400000
MonoBehaviour:
  m_ObjectHideFlags: 0
  m_CorrespondingSourceObject: {fileID: 0}
  m_PrefabInstance: {fileID: 0}
  m_PrefabAsset: {fileID: 0}
  m_GameObject: {fileID: 0}
  m_Enabled: 1
  m_EditorHideFlags: 0
  m_Script: {fileID: 11500000, guid: 34a7a95dadd9f454292ebf13cbbbed79, type: 3}
  m_Name: 0
  m_EditorClassIdentifier: 
  lanes:
  - type: 1
    dir: 0
    enableAdditionalObjects: 1
  - type: 1
    dir: 1
    enableAdditionalObjects: 0
  - type: 2
    dir: 0
    enableAdditionalObjects: 0
  - type: 1
    dir: 0
    enableAdditionalObjects: 1
  - type: 1
    dir: 1
    enableAdditionalObjects: 0
  - type: 0
    dir: 0
    enableAdditionalObjects: 0
