{
    "name": "JumpStreet3D",
    "maps": [
        {
            "name": "Core",
            "id": "481bcbf1-88f9-4ceb-af68-af212316ce57",
            "actions": [
                {
                    "name": "Start Game",
                    "type": "Button",
                    "id": "f8513100-a08f-4838-8f59-5fd7ba0067b4",
                    "expectedControlType": "Button",
                    "processors": "",
                    "interactions": "",
                    "initialStateCheck": false
                },
                {
                    "name": "Pause Game",
                    "type": "Button",
                    "id": "e32ceaf6-db1d-43c6-a65b-45989ac5ab37",
                    "expectedControlType": "Button",
                    "processors": "",
                    "interactions": "",
                    "initialStateCheck": false
                },
                {
                    "name": "Movement",
                    "type": "Value",
                    "id": "5eaa2ce7-8faa-471a-8225-93afef1458bb",
                    "expectedControlType": "Vector2",
                    "processors": "",
                    "interactions": "",
                    "initialStateCheck": true
                }
            ],
            "bindings": [
                {
                    "name": "",
                    "id": "6e6e46ca-5b2b-440f-b088-e69c9638162e",
                    "path": "<Keyboard>/anyKey",
                    "interactions": "",
                    "processors": "",
                    "groups": "PS4;PC",
                    "action": "Start Game",
                    "isComposite": false,
                    "isPartOfComposite": false
                },
                {
                    "name": "",
                    "id": "33cfe25d-96e6-4aaf-b1e4-f460be3fd0e3",
                    "path": "",
                    "interactions": "",
                    "processors": "",
                    "groups": "",
                    "action": "Start Game",
                    "isComposite": false,
                    "isPartOfComposite": false
                },
                {
                    "name": "",
                    "id": "89c07596-ccd0-472d-811b-32d31071982f",
                    "path": "<Keyboard>/p",
                    "interactions": "",
                    "processors": "",
                    "groups": "PC",
                    "action": "Pause Game",
                    "isComposite": false,
                    "isPartOfComposite": false
                },
                {
                    "name": "PC",
                    "id": "4046c8d1-d86a-438b-a4d1-3d79ac660766",
                    "path": "2DVector",
                    "interactions": "",
                    "processors": "",
                    "groups": "",
                    "action": "Movement",
                    "isComposite": true,
                    "isPartOfComposite": false
                },
                {
                    "name": "up",
                    "id": "ba946991-44ed-47fe-9c9f-4f26d2e2ea64",
                    "path": "<Keyboard>/w",
                    "interactions": "",
                    "processors": "",
                    "groups": "PC",
                    "action": "Movement",
                    "isComposite": false,
                    "isPartOfComposite": true
                },
                {
                    "name": "down",
                    "id": "e3831721-2954-40ef-937b-95835b82cf52",
                    "path": "<Keyboard>/s",
                    "interactions": "",
                    "processors": "",
                    "groups": "PC",
                    "action": "Movement",
                    "isComposite": false,
                    "isPartOfComposite": true
                },
                {
                    "name": "left",
                    "id": "62d0e7d7-4fde-4a0a-ad32-2541c15fbb96",
                    "path": "<Keyboard>/a",
                    "interactions": "",
                    "processors": "",
                    "groups": "PC",
                    "action": "Movement",
                    "isComposite": false,
                    "isPartOfComposite": true
                },
                {
                    "name": "right",
                    "id": "1ac6a5b3-1e12-403b-8baa-0d6fef9ed40d",
                    "path": "<Keyboard>/d",
                    "interactions": "",
                    "processors": "",
                    "groups": "PC",
                    "action": "Movement",
                    "isComposite": false,
                    "isPartOfComposite": true
                }
            ]
        }
    ],
    "controlSchemes": [
        {
            "name": "PS4",
            "bindingGroup": "PS4",
            "devices": [
                {
                    "devicePath": "<DualShock4GamepadAndroid>",
                    "isOptional": false,
                    "isOR": false
                }
            ]
        },
        {
            "name": "PC",
            "bindingGroup": "PC",
            "devices": [
                {
                    "devicePath": "<Keyboard>",
                    "isOptional": false,
                    "isOR": false
                },
                {
                    "devicePath": "<Mouse>",
                    "isOptional": false,
                    "isOR": false
                }
            ]
        }
    ]
}